{"failedCount":0,"prefixedPath":"classpath:feature\/TestRestAPI.feature","packageQualifiedName":"feature.TestRestAPI","loopIndex":-1,"relativePath":"feature\/TestRestAPI.feature","scenarioResults":[{"sectionIndex":0,"stepResults":[{"result":{"nanos":210417700,"startTime":1705001494884,"endTime":1705001495094,"millis":210.4177,"status":"passed"},"step":{"background":true,"line":5,"prefix":"*","index":0,"text":"url \"https:\/\/reqres.in\/\""}},{"result":{"nanos":1833300,"startTime":1705001495102,"endTime":1705001495104,"millis":1.8333,"status":"passed"},"step":{"background":true,"line":6,"prefix":"*","index":1,"text":"header Accept = 'application\/json'"}},{"result":{"nanos":185509499,"startTime":1705001495105,"endTime":1705001495291,"millis":185.509499,"status":"passed"},"step":{"background":true,"line":7,"prefix":"*","index":2,"text":"def projectPath = karate.properties['user.dir']"}},{"result":{"nanos":36983700,"startTime":1705001495291,"endTime":1705001495328,"millis":36.9837,"status":"passed"},"step":{"background":true,"line":8,"prefix":"Then","index":3,"text":"print projectPath"},"stepLog":"01:01:35.324 [print] C:\\Projects\\API_Automation\\Karate_API_Automation \n"},{"result":{"nanos":15243800,"startTime":1705001495328,"endTime":1705001495343,"millis":15.2438,"status":"passed"},"step":{"background":true,"line":9,"prefix":"*","index":4,"text":"def fileFolderPath = projectPath + \"\\\\src\\\\main\\\\resources\\\\\""}},{"result":{"nanos":937301,"startTime":1705001495344,"endTime":1705001495345,"millis":0.937301,"status":"passed"},"step":{"line":15,"prefix":"Given","index":0,"text":"path \"api\/users\""}},{"result":{"nanos":5759600,"startTime":1705001495345,"endTime":1705001495351,"millis":5.7596,"status":"passed"},"step":{"line":16,"prefix":"And","index":1,"text":"param page = 2"}},{"result":{"nanos":1914357199,"startTime":1705001495351,"endTime":1705001497265,"millis":1914.357199,"status":"passed"},"step":{"line":17,"prefix":"When","index":2,"text":"method GET"},"stepLog":"01:01:35.974 request:\n1 > GET https:\/\/reqres.in\/api\/users?page=2\n1 > Accept: application\/json\n1 > Host: reqres.in\n1 > Connection: Keep-Alive\n1 > User-Agent: Apache-HttpClient\/4.5.12 (Java\/17.0.9)\n1 > Accept-Encoding: gzip,deflate\n\n\n01:01:37.192 response time in milliseconds: 1208\n1 < 200\n1 < Date: Thu, 11 Jan 2024 19:31:38 GMT\n1 < Content-Type: application\/json; charset=utf-8\n1 < Transfer-Encoding: chunked\n1 < Connection: keep-alive\n1 < Report-To: {\"group\":\"heroku-nel\",\"max_age\":3600,\"endpoints\":[{\"url\":\"https:\/\/nel.heroku.com\/reports?ts=1704873548&sid=c4c9725f-1ab0-44d8-820f-430df2718e11&s=%2Bj2XJ%2F7RFtzKn7KvrmagjguJe8K6qgykK%2BmU3ercPRQ%3D\"}]}\n1 < Reporting-Endpoints: heroku-nel=https:\/\/nel.heroku.com\/reports?ts=1704873548&sid=c4c9725f-1ab0-44d8-820f-430df2718e11&s=%2Bj2XJ%2F7RFtzKn7KvrmagjguJe8K6qgykK%2BmU3ercPRQ%3D\n1 < Nel: {\"report_to\":\"heroku-nel\",\"max_age\":3600,\"success_fraction\":0.005,\"failure_fraction\":0.05,\"response_headers\":[\"Via\"]}\n1 < X-Powered-By: Express\n1 < Access-Control-Allow-Origin: *\n1 < Etag: W\/\"406-ut0vzoCuidvyMf8arZpMpJ6ZRDw\"\n1 < Via: 1.1 vegur\n1 < Cache-Control: max-age=14400\n1 < CF-Cache-Status: REVALIDATED\n1 < Vary: Accept-Encoding\n1 < Server: cloudflare\n1 < CF-RAY: 843f94c33c8b93a9-BBI\n{\"page\":2,\"per_page\":6,\"total\":12,\"total_pages\":2,\"data\":[{\"id\":7,\"email\":\"michael.lawson@reqres.in\",\"first_name\":\"Michael\",\"last_name\":\"Lawson\",\"avatar\":\"https:\/\/reqres.in\/img\/faces\/7-image.jpg\"},{\"id\":8,\"email\":\"lindsay.ferguson@reqres.in\",\"first_name\":\"Lindsay\",\"last_name\":\"Ferguson\",\"avatar\":\"https:\/\/reqres.in\/img\/faces\/8-image.jpg\"},{\"id\":9,\"email\":\"tobias.funke@reqres.in\",\"first_name\":\"Tobias\",\"last_name\":\"Funke\",\"avatar\":\"https:\/\/reqres.in\/img\/faces\/9-image.jpg\"},{\"id\":10,\"email\":\"byron.fields@reqres.in\",\"first_name\":\"Byron\",\"last_name\":\"Fields\",\"avatar\":\"https:\/\/reqres.in\/img\/faces\/10-image.jpg\"},{\"id\":11,\"email\":\"george.edwards@reqres.in\",\"first_name\":\"George\",\"last_name\":\"Edwards\",\"avatar\":\"https:\/\/reqres.in\/img\/faces\/11-image.jpg\"},{\"id\":12,\"email\":\"rachel.howell@reqres.in\",\"first_name\":\"Rachel\",\"last_name\":\"Howell\",\"avatar\":\"https:\/\/reqres.in\/img\/faces\/12-image.jpg\"}],\"support\":{\"url\":\"https:\/\/reqres.in\/#support-heading\",\"text\":\"To keep ReqRes free, contributions towards server costs are appreciated!\"}}\n\n"},{"result":{"nanos":34701,"startTime":1705001497265,"endTime":1705001497265,"millis":0.034701,"status":"passed"},"step":{"line":18,"prefix":"Then","index":3,"text":"status 200"}},{"result":{"nanos":6304000,"startTime":1705001497265,"endTime":1705001497271,"millis":6.304,"status":"passed"},"step":{"line":19,"prefix":"And","index":4,"text":"print response"},"stepLog":"01:01:37.271 [print] {\n  \"page\": 2,\n  \"per_page\": 6,\n  \"total\": 12,\n  \"total_pages\": 2,\n  \"data\": [\n    {\n      \"id\": 7,\n      \"email\": \"michael.lawson@reqres.in\",\n      \"first_name\": \"Michael\",\n      \"last_name\": \"Lawson\",\n      \"avatar\": \"https:\/\/reqres.in\/img\/faces\/7-image.jpg\"\n    },\n    {\n      \"id\": 8,\n      \"email\": \"lindsay.ferguson@reqres.in\",\n      \"first_name\": \"Lindsay\",\n      \"last_name\": \"Ferguson\",\n      \"avatar\": \"https:\/\/reqres.in\/img\/faces\/8-image.jpg\"\n    },\n    {\n      \"id\": 9,\n      \"email\": \"tobias.funke@reqres.in\",\n      \"first_name\": \"Tobias\",\n      \"last_name\": \"Funke\",\n      \"avatar\": \"https:\/\/reqres.in\/img\/faces\/9-image.jpg\"\n    },\n    {\n      \"id\": 10,\n      \"email\": \"byron.fields@reqres.in\",\n      \"first_name\": \"Byron\",\n      \"last_name\": \"Fields\",\n      \"avatar\": \"https:\/\/reqres.in\/img\/faces\/10-image.jpg\"\n    },\n    {\n      \"id\": 11,\n      \"email\": \"george.edwards@reqres.in\",\n      \"first_name\": \"George\",\n      \"last_name\": \"Edwards\",\n      \"avatar\": \"https:\/\/reqres.in\/img\/faces\/11-image.jpg\"\n    },\n    {\n      \"id\": 12,\n      \"email\": \"rachel.howell@reqres.in\",\n      \"first_name\": \"Rachel\",\n      \"last_name\": \"Howell\",\n      \"avatar\": \"https:\/\/reqres.in\/img\/faces\/12-image.jpg\"\n    }\n  ],\n  \"support\": {\n    \"url\": \"https:\/\/reqres.in\/#support-heading\",\n    \"text\": \"To keep ReqRes free, contributions towards server costs are appreciated!\"\n  }\n}\n \n"},{"result":{"nanos":3767501,"startTime":1705001497271,"endTime":1705001497275,"millis":3.767501,"status":"passed"},"step":{"line":20,"prefix":"And","index":5,"text":"print responseStatus"},"stepLog":"01:01:37.274 [print] 200 \n"},{"result":{"nanos":2990600,"startTime":1705001497280,"endTime":1705001497283,"millis":2.9906,"status":"passed"},"step":{"line":21,"prefix":"And","index":6,"text":"print responseTime"},"stepLog":"01:01:37.282 [print] 1208 \n"},{"result":{"nanos":8572000,"startTime":1705001497283,"endTime":1705001497292,"millis":8.572,"status":"passed"},"step":{"line":22,"prefix":"And","index":7,"text":"print responseHeaders"},"stepLog":"01:01:37.291 [print] {\n  \"Date\": [\n    \"Thu, 11 Jan 2024 19:31:38 GMT\"\n  ],\n  \"Content-Type\": [\n    \"application\/json; charset=utf-8\"\n  ],\n  \"Transfer-Encoding\": [\n    \"chunked\"\n  ],\n  \"Connection\": [\n    \"keep-alive\"\n  ],\n  \"Report-To\": [\n    \"{\\\"group\\\":\\\"heroku-nel\\\",\\\"max_age\\\":3600,\\\"endpoints\\\":[{\\\"url\\\":\\\"https:\/\/nel.heroku.com\/reports?ts=1704873548&sid=c4c9725f-1ab0-44d8-820f-430df2718e11&s=%2Bj2XJ%2F7RFtzKn7KvrmagjguJe8K6qgykK%2BmU3ercPRQ%3D\\\"}]}\"\n  ],\n  \"Reporting-Endpoints\": [\n    \"heroku-nel=https:\/\/nel.heroku.com\/reports?ts=1704873548&sid=c4c9725f-1ab0-44d8-820f-430df2718e11&s=%2Bj2XJ%2F7RFtzKn7KvrmagjguJe8K6qgykK%2BmU3ercPRQ%3D\"\n  ],\n  \"Nel\": [\n    \"{\\\"report_to\\\":\\\"heroku-nel\\\",\\\"max_age\\\":3600,\\\"success_fraction\\\":0.005,\\\"failure_fraction\\\":0.05,\\\"response_headers\\\":[\\\"Via\\\"]}\"\n  ],\n  \"X-Powered-By\": [\n    \"Express\"\n  ],\n  \"Access-Control-Allow-Origin\": [\n    \"*\"\n  ],\n  \"Etag\": [\n    \"W\/\\\"406-ut0vzoCuidvyMf8arZpMpJ6ZRDw\\\"\"\n  ],\n  \"Via\": [\n    \"1.1 vegur\"\n  ],\n  \"Cache-Control\": [\n    \"max-age=14400\"\n  ],\n  \"CF-Cache-Status\": [\n    \"REVALIDATED\"\n  ],\n  \"Vary\": [\n    \"Accept-Encoding\"\n  ],\n  \"Server\": [\n    \"cloudflare\"\n  ],\n  \"CF-RAY\": [\n    \"843f94c33c8b93a9-BBI\"\n  ],\n  \"Set-Cookie\": [\n  ]\n}\n \n"},{"result":{"nanos":2360701,"startTime":1705001497292,"endTime":1705001497294,"millis":2.360701,"status":"passed"},"step":{"line":23,"prefix":"And","index":8,"text":"print responseCookies"},"stepLog":"01:01:37.293 [print] {\n}\n \n"}],"line":14,"description":"","durationMillis":2395.071602,"failed":false,"tags":["testGet","doRestTest"],"executorName":"main","name":"Do a rest api parameterized GET request","startTime":1705001494818,"refId":"[1:14]","endTime":1705001497294,"exampleIndex":-1},{"sectionIndex":1,"stepResults":[{"result":{"nanos":1215400,"startTime":1705001497322,"endTime":1705001497323,"millis":1.2154,"status":"passed"},"step":{"background":true,"line":5,"prefix":"*","index":0,"text":"url \"https:\/\/reqres.in\/\""}},{"result":{"nanos":14613801,"startTime":1705001497323,"endTime":1705001497338,"millis":14.613801,"status":"passed"},"step":{"background":true,"line":6,"prefix":"*","index":1,"text":"header Accept = 'application\/json'"}},{"result":{"nanos":2438100,"startTime":1705001497339,"endTime":1705001497341,"millis":2.4381,"status":"passed"},"step":{"background":true,"line":7,"prefix":"*","index":2,"text":"def projectPath = karate.properties['user.dir']"}},{"result":{"nanos":7456101,"startTime":1705001497341,"endTime":1705001497348,"millis":7.456101,"status":"passed"},"step":{"background":true,"line":8,"prefix":"Then","index":3,"text":"print projectPath"},"stepLog":"01:01:37.346 [print] C:\\Projects\\API_Automation\\Karate_API_Automation \n"},{"result":{"nanos":1549899,"startTime":1705001497349,"endTime":1705001497351,"millis":1.549899,"status":"passed"},"step":{"background":true,"line":9,"prefix":"*","index":4,"text":"def fileFolderPath = projectPath + \"\\\\src\\\\main\\\\resources\\\\\""}},{"result":{"nanos":333601,"startTime":1705001497351,"endTime":1705001497351,"millis":0.333601,"status":"passed"},"step":{"line":28,"prefix":"Given","index":0,"text":"path \"api\/users\""}},{"result":{"nanos":460699,"startTime":1705001497351,"endTime":1705001497351,"millis":0.460699,"status":"passed"},"step":{"line":29,"prefix":"And","index":1,"text":"param page = 2"}},{"result":{"nanos":178117600,"startTime":1705001497352,"endTime":1705001497530,"millis":178.1176,"status":"passed"},"step":{"line":30,"prefix":"When","index":2,"text":"method GET"},"stepLog":"01:01:37.354 request:\n1 > GET https:\/\/reqres.in\/api\/users?page=2\n1 > Accept: application\/json\n1 > Host: reqres.in\n1 > Connection: Keep-Alive\n1 > User-Agent: Apache-HttpClient\/4.5.12 (Java\/17.0.9)\n1 > Accept-Encoding: gzip,deflate\n\n\n01:01:37.508 response time in milliseconds: 150\n1 < 200\n1 < Date: Thu, 11 Jan 2024 19:31:38 GMT\n1 < Content-Type: application\/json; charset=utf-8\n1 < Transfer-Encoding: chunked\n1 < Connection: keep-alive\n1 < Report-To: {\"group\":\"heroku-nel\",\"max_age\":3600,\"endpoints\":[{\"url\":\"https:\/\/nel.heroku.com\/reports?ts=1704873548&sid=c4c9725f-1ab0-44d8-820f-430df2718e11&s=%2Bj2XJ%2F7RFtzKn7KvrmagjguJe8K6qgykK%2BmU3ercPRQ%3D\"}]}\n1 < Reporting-Endpoints: heroku-nel=https:\/\/nel.heroku.com\/reports?ts=1704873548&sid=c4c9725f-1ab0-44d8-820f-430df2718e11&s=%2Bj2XJ%2F7RFtzKn7KvrmagjguJe8K6qgykK%2BmU3ercPRQ%3D\n1 < Nel: {\"report_to\":\"heroku-nel\",\"max_age\":3600,\"success_fraction\":0.005,\"failure_fraction\":0.05,\"response_headers\":[\"Via\"]}\n1 < X-Powered-By: Express\n1 < Access-Control-Allow-Origin: *\n1 < Etag: W\/\"406-ut0vzoCuidvyMf8arZpMpJ6ZRDw\"\n1 < Via: 1.1 vegur\n1 < Cache-Control: max-age=14400\n1 < CF-Cache-Status: HIT\n1 < Age: 0\n1 < Vary: Accept-Encoding\n1 < Server: cloudflare\n1 < CF-RAY: 843f94c7685f9398-BBI\n{\"page\":2,\"per_page\":6,\"total\":12,\"total_pages\":2,\"data\":[{\"id\":7,\"email\":\"michael.lawson@reqres.in\",\"first_name\":\"Michael\",\"last_name\":\"Lawson\",\"avatar\":\"https:\/\/reqres.in\/img\/faces\/7-image.jpg\"},{\"id\":8,\"email\":\"lindsay.ferguson@reqres.in\",\"first_name\":\"Lindsay\",\"last_name\":\"Ferguson\",\"avatar\":\"https:\/\/reqres.in\/img\/faces\/8-image.jpg\"},{\"id\":9,\"email\":\"tobias.funke@reqres.in\",\"first_name\":\"Tobias\",\"last_name\":\"Funke\",\"avatar\":\"https:\/\/reqres.in\/img\/faces\/9-image.jpg\"},{\"id\":10,\"email\":\"byron.fields@reqres.in\",\"first_name\":\"Byron\",\"last_name\":\"Fields\",\"avatar\":\"https:\/\/reqres.in\/img\/faces\/10-image.jpg\"},{\"id\":11,\"email\":\"george.edwards@reqres.in\",\"first_name\":\"George\",\"last_name\":\"Edwards\",\"avatar\":\"https:\/\/reqres.in\/img\/faces\/11-image.jpg\"},{\"id\":12,\"email\":\"rachel.howell@reqres.in\",\"first_name\":\"Rachel\",\"last_name\":\"Howell\",\"avatar\":\"https:\/\/reqres.in\/img\/faces\/12-image.jpg\"}],\"support\":{\"url\":\"https:\/\/reqres.in\/#support-heading\",\"text\":\"To keep ReqRes free, contributions towards server costs are appreciated!\"}}\n\n"},{"result":{"nanos":15100,"startTime":1705001497529,"endTime":1705001497529,"millis":0.0151,"status":"passed"},"step":{"line":31,"prefix":"Then","index":3,"text":"status 200"}},{"result":{"nanos":7575300,"startTime":1705001497529,"endTime":1705001497537,"millis":7.5753,"status":"passed"},"step":{"line":32,"prefix":"And","index":4,"text":"print response"},"stepLog":"01:01:37.537 [print] {\n  \"page\": 2,\n  \"per_page\": 6,\n  \"total\": 12,\n  \"total_pages\": 2,\n  \"data\": [\n    {\n      \"id\": 7,\n      \"email\": \"michael.lawson@reqres.in\",\n      \"first_name\": \"Michael\",\n      \"last_name\": \"Lawson\",\n      \"avatar\": \"https:\/\/reqres.in\/img\/faces\/7-image.jpg\"\n    },\n    {\n      \"id\": 8,\n      \"email\": \"lindsay.ferguson@reqres.in\",\n      \"first_name\": \"Lindsay\",\n      \"last_name\": \"Ferguson\",\n      \"avatar\": \"https:\/\/reqres.in\/img\/faces\/8-image.jpg\"\n    },\n    {\n      \"id\": 9,\n      \"email\": \"tobias.funke@reqres.in\",\n      \"first_name\": \"Tobias\",\n      \"last_name\": \"Funke\",\n      \"avatar\": \"https:\/\/reqres.in\/img\/faces\/9-image.jpg\"\n    },\n    {\n      \"id\": 10,\n      \"email\": \"byron.fields@reqres.in\",\n      \"first_name\": \"Byron\",\n      \"last_name\": \"Fields\",\n      \"avatar\": \"https:\/\/reqres.in\/img\/faces\/10-image.jpg\"\n    },\n    {\n      \"id\": 11,\n      \"email\": \"george.edwards@reqres.in\",\n      \"first_name\": \"George\",\n      \"last_name\": \"Edwards\",\n      \"avatar\": \"https:\/\/reqres.in\/img\/faces\/11-image.jpg\"\n    },\n    {\n      \"id\": 12,\n      \"email\": \"rachel.howell@reqres.in\",\n      \"first_name\": \"Rachel\",\n      \"last_name\": \"Howell\",\n      \"avatar\": \"https:\/\/reqres.in\/img\/faces\/12-image.jpg\"\n    }\n  ],\n  \"support\": {\n    \"url\": \"https:\/\/reqres.in\/#support-heading\",\n    \"text\": \"To keep ReqRes free, contributions towards server costs are appreciated!\"\n  }\n}\n \n"},{"result":{"nanos":114762500,"startTime":1705001497537,"endTime":1705001497652,"millis":114.7625,"status":"passed"},"step":{"line":33,"prefix":"And","index":5,"text":"match response.data[0].first_name != null"}},{"result":{"nanos":11079999,"startTime":1705001497652,"endTime":1705001497663,"millis":11.079999,"status":"passed"},"step":{"line":34,"prefix":"And","index":6,"text":"assert response.data.length == 6"}},{"result":{"nanos":2578899,"startTime":1705001497664,"endTime":1705001497667,"millis":2.578899,"status":"passed"},"step":{"line":35,"prefix":"And","index":7,"text":"match response.data[3].id == 10"}},{"result":{"nanos":2785999,"startTime":1705001497666,"endTime":1705001497669,"millis":2.785999,"status":"passed"},"step":{"line":36,"prefix":"And","index":8,"text":"match $.data[0].first_name == \"Michael\""}},{"result":{"nanos":2917700,"startTime":1705001497669,"endTime":1705001497672,"millis":2.9177,"status":"passed"},"step":{"line":37,"prefix":"And","index":9,"text":"print response.data[0]"},"stepLog":"01:01:37.672 [print] {\n  \"id\": 7,\n  \"email\": \"michael.lawson@reqres.in\",\n  \"first_name\": \"Michael\",\n  \"last_name\": \"Lawson\",\n  \"avatar\": \"https:\/\/reqres.in\/img\/faces\/7-image.jpg\"\n}\n \n"}],"line":27,"description":"","durationMillis":347.900698,"failed":false,"tags":["testGet","doRestTest"],"executorName":"main","name":"Do a rest api GET request with assertions","startTime":1705001497320,"refId":"[2:27]","endTime":1705001497672,"exampleIndex":-1},{"sectionIndex":2,"stepResults":[{"result":{"nanos":492500,"startTime":1705001497697,"endTime":1705001497697,"millis":0.4925,"status":"passed"},"step":{"background":true,"line":5,"prefix":"*","index":0,"text":"url \"https:\/\/reqres.in\/\""}},{"result":{"nanos":408601,"startTime":1705001497697,"endTime":1705001497697,"millis":0.408601,"status":"passed"},"step":{"background":true,"line":6,"prefix":"*","index":1,"text":"header Accept = 'application\/json'"}},{"result":{"nanos":1076100,"startTime":1705001497698,"endTime":1705001497699,"millis":1.0761,"status":"passed"},"step":{"background":true,"line":7,"prefix":"*","index":2,"text":"def projectPath = karate.properties['user.dir']"}},{"result":{"nanos":1074500,"startTime":1705001497699,"endTime":1705001497700,"millis":1.0745,"status":"passed"},"step":{"background":true,"line":8,"prefix":"Then","index":3,"text":"print projectPath"},"stepLog":"01:01:37.700 [print] C:\\Projects\\API_Automation\\Karate_API_Automation \n"},{"result":{"nanos":4050001,"startTime":1705001497700,"endTime":1705001497704,"millis":4.050001,"status":"passed"},"step":{"background":true,"line":9,"prefix":"*","index":4,"text":"def fileFolderPath = projectPath + \"\\\\src\\\\main\\\\resources\\\\\""}},{"result":{"nanos":322501,"startTime":1705001497704,"endTime":1705001497704,"millis":0.322501,"status":"passed"},"step":{"line":42,"prefix":"Given","index":0,"text":"path \"api\/users\""}},{"result":{"nanos":3846900,"startTime":1705001497705,"endTime":1705001497709,"millis":3.8469,"status":"passed"},"step":{"line":43,"prefix":"And","index":1,"text":"request {\"name\" : \"Indrajit\",\"job\" : \"Tester\"}"}},{"result":{"nanos":847137400,"startTime":1705001497709,"endTime":1705001498556,"millis":847.1374,"status":"passed"},"step":{"line":44,"prefix":"When","index":2,"text":"method POST"},"stepLog":"01:01:37.803 request:\n1 > POST https:\/\/reqres.in\/api\/users\n1 > Accept: application\/json\n1 > Content-Type: application\/json; charset=UTF-8\n1 > Content-Length: 34\n1 > Host: reqres.in\n1 > Connection: Keep-Alive\n1 > User-Agent: Apache-HttpClient\/4.5.12 (Java\/17.0.9)\n1 > Accept-Encoding: gzip,deflate\n{\"name\":\"Indrajit\",\"job\":\"Tester\"}\n\n01:01:38.552 response time in milliseconds: 746\n1 < 201\n1 < Date: Thu, 11 Jan 2024 19:31:39 GMT\n1 < Content-Type: application\/json; charset=utf-8\n1 < Content-Length: 84\n1 < Connection: keep-alive\n1 < Report-To: {\"group\":\"heroku-nel\",\"max_age\":3600,\"endpoints\":[{\"url\":\"https:\/\/nel.heroku.com\/reports?ts=1705001499&sid=c4c9725f-1ab0-44d8-820f-430df2718e11&s=XMmPEFREYRZVpUIwAZL9q3Lbff6OTURUSXFMz7e9oqg%3D\"}]}\n1 < Reporting-Endpoints: heroku-nel=https:\/\/nel.heroku.com\/reports?ts=1705001499&sid=c4c9725f-1ab0-44d8-820f-430df2718e11&s=XMmPEFREYRZVpUIwAZL9q3Lbff6OTURUSXFMz7e9oqg%3D\n1 < Nel: {\"report_to\":\"heroku-nel\",\"max_age\":3600,\"success_fraction\":0.005,\"failure_fraction\":0.05,\"response_headers\":[\"Via\"]}\n1 < X-Powered-By: Express\n1 < Access-Control-Allow-Origin: *\n1 < Etag: W\/\"54-dO+K0up1\/S1zON\/tbhtVXSmI+EU\"\n1 < Via: 1.1 vegur\n1 < CF-Cache-Status: DYNAMIC\n1 < Server: cloudflare\n1 < CF-RAY: 843f94ca99019398-BBI\n{\"name\":\"Indrajit\",\"job\":\"Tester\",\"id\":\"134\",\"createdAt\":\"2024-01-11T19:31:39.701Z\"}\n\n"},{"result":{"nanos":21500,"startTime":1705001498557,"endTime":1705001498557,"millis":0.0215,"status":"passed"},"step":{"line":45,"prefix":"Then","index":3,"text":"status 201"}},{"result":{"nanos":1710599,"startTime":1705001498557,"endTime":1705001498559,"millis":1.710599,"status":"passed"},"step":{"line":46,"prefix":"And","index":4,"text":"print response"},"stepLog":"01:01:38.558 [print] {\n  \"name\": \"Indrajit\",\n  \"job\": \"Tester\",\n  \"id\": \"134\",\n  \"createdAt\": \"2024-01-11T19:31:39.701Z\"\n}\n \n"},{"result":{"nanos":1399801,"startTime":1705001498560,"endTime":1705001498561,"millis":1.399801,"status":"passed"},"step":{"line":47,"prefix":"And","index":5,"text":"print responseTime"},"stepLog":"01:01:38.561 [print] 746 \n"},{"result":{"nanos":2753599,"startTime":1705001498563,"endTime":1705001498566,"millis":2.753599,"status":"passed"},"step":{"line":48,"prefix":"And","index":6,"text":"match response == {\"name\": \"Indrajit\", \"job\": \"Tester\", \"id\": \"#string\",\"createdAt\": \"#ignore\"}"}}],"line":41,"description":"","durationMillis":864.294002,"failed":false,"tags":["testPost","doRestTest"],"executorName":"main","name":"Do a rest api POST request with assertions","startTime":1705001497696,"refId":"[3:41]","endTime":1705001498566,"exampleIndex":-1},{"sectionIndex":3,"stepResults":[{"result":{"nanos":607901,"startTime":1705001498578,"endTime":1705001498579,"millis":0.607901,"status":"passed"},"step":{"background":true,"line":5,"prefix":"*","index":0,"text":"url \"https:\/\/reqres.in\/\""}},{"result":{"nanos":624400,"startTime":1705001498580,"endTime":1705001498581,"millis":0.6244,"status":"passed"},"step":{"background":true,"line":6,"prefix":"*","index":1,"text":"header Accept = 'application\/json'"}},{"result":{"nanos":1160300,"startTime":1705001498580,"endTime":1705001498581,"millis":1.1603,"status":"passed"},"step":{"background":true,"line":7,"prefix":"*","index":2,"text":"def projectPath = karate.properties['user.dir']"}},{"result":{"nanos":1061599,"startTime":1705001498582,"endTime":1705001498583,"millis":1.061599,"status":"passed"},"step":{"background":true,"line":8,"prefix":"Then","index":3,"text":"print projectPath"},"stepLog":"01:01:38.582 [print] C:\\Projects\\API_Automation\\Karate_API_Automation \n"},{"result":{"nanos":1352700,"startTime":1705001498583,"endTime":1705001498584,"millis":1.3527,"status":"passed"},"step":{"background":true,"line":9,"prefix":"*","index":4,"text":"def fileFolderPath = projectPath + \"\\\\src\\\\main\\\\resources\\\\\""}},{"result":{"nanos":392299,"startTime":1705001498584,"endTime":1705001498584,"millis":0.392299,"status":"passed"},"step":{"line":53,"prefix":"Given","index":0,"text":"path \"api\/users\""}},{"result":{"nanos":616800,"startTime":1705001498585,"endTime":1705001498586,"millis":0.6168,"status":"passed"},"step":{"line":54,"prefix":"And","index":1,"text":"request {\"name\" : \"Indrajit\",\"job\" : \"Tester\"}"}},{"result":{"nanos":466376200,"startTime":1705001498586,"endTime":1705001499052,"millis":466.3762,"status":"passed"},"step":{"line":55,"prefix":"When","index":2,"text":"method POST"},"stepLog":"01:01:38.587 request:\n1 > POST https:\/\/reqres.in\/api\/users\n1 > Accept: application\/json\n1 > Content-Type: application\/json; charset=UTF-8\n1 > Content-Length: 34\n1 > Host: reqres.in\n1 > Connection: Keep-Alive\n1 > User-Agent: Apache-HttpClient\/4.5.12 (Java\/17.0.9)\n1 > Accept-Encoding: gzip,deflate\n{\"name\":\"Indrajit\",\"job\":\"Tester\"}\n\n01:01:39.048 response time in milliseconds: 459\n1 < 201\n1 < Date: Thu, 11 Jan 2024 19:31:40 GMT\n1 < Content-Type: application\/json; charset=utf-8\n1 < Content-Length: 84\n1 < Connection: keep-alive\n1 < Report-To: {\"group\":\"heroku-nel\",\"max_age\":3600,\"endpoints\":[{\"url\":\"https:\/\/nel.heroku.com\/reports?ts=1705001500&sid=c4c9725f-1ab0-44d8-820f-430df2718e11&s=WC6AvKutwCfmuLFLtafFPGKdRVRiSga%2BllsxJdQEBIE%3D\"}]}\n1 < Reporting-Endpoints: heroku-nel=https:\/\/nel.heroku.com\/reports?ts=1705001500&sid=c4c9725f-1ab0-44d8-820f-430df2718e11&s=WC6AvKutwCfmuLFLtafFPGKdRVRiSga%2BllsxJdQEBIE%3D\n1 < Nel: {\"report_to\":\"heroku-nel\",\"max_age\":3600,\"success_fraction\":0.005,\"failure_fraction\":0.05,\"response_headers\":[\"Via\"]}\n1 < X-Powered-By: Express\n1 < Access-Control-Allow-Origin: *\n1 < Etag: W\/\"54-9haoui8FL\/bUxpcphGmdYOu\/dd8\"\n1 < Via: 1.1 vegur\n1 < CF-Cache-Status: DYNAMIC\n1 < Server: cloudflare\n1 < CF-RAY: 843f94cefcbf93a3-BBI\n{\"name\":\"Indrajit\",\"job\":\"Tester\",\"id\":\"225\",\"createdAt\":\"2024-01-11T19:31:40.248Z\"}\n\n"},{"result":{"nanos":15901,"startTime":1705001499052,"endTime":1705001499052,"millis":0.015901,"status":"passed"},"step":{"line":56,"prefix":"Then","index":3,"text":"status 201"}},{"result":{"nanos":1340400,"startTime":1705001499052,"endTime":1705001499053,"millis":1.3404,"status":"passed"},"step":{"line":57,"prefix":"And","index":4,"text":"print response"},"stepLog":"01:01:39.053 [print] {\n  \"name\": \"Indrajit\",\n  \"job\": \"Tester\",\n  \"id\": \"225\",\n  \"createdAt\": \"2024-01-11T19:31:40.248Z\"\n}\n \n"},{"result":{"nanos":1649700,"startTime":1705001499053,"endTime":1705001499055,"millis":1.6497,"status":"passed"},"step":{"line":58,"prefix":"And","index":5,"text":"print responseTime"},"stepLog":"01:01:39.054 [print] 459 \n"},{"result":{"nanos":18550100,"startTime":1705001499055,"endTime":1705001499074,"millis":18.5501,"status":"passed"},"step":{"comments":["#And print fileFolderPath","#And def expectedOutput = read(fileFolderPath + \"response.json\")","#And match response == expectedOutput"],"line":62,"prefix":"And","index":6,"text":"match response == read(\".\/response.json\")"}}],"line":52,"description":"","durationMillis":493.7483,"failed":false,"tags":["testPost","doRestTest"],"executorName":"main","name":"Do a rest api POST request with assertions data from file","startTime":1705001498577,"refId":"[4:52]","endTime":1705001499074,"exampleIndex":-1}],"callDepth":0,"name":"Test REST api","description":"","resultDate":"2024-01-12 01:01:39 AM","durationMillis":4101.014602,"passedCount":4}